"The Recall Incident"
id,cc_id,org_id,closed,cc_incident_id,incident_no,incident_date,incident_name,initiation_type,initiation_date,closed_date,incident_total_time,tasks_started,tasks_ended,total_time_tasks,input_pack_id,simulation_id,default_currency_id,default_currency_name,initiation_type_name,affected_loc
33,68,30,1,5,R005,09-Feb-2015,sadfdsf,0,"2015-06-22 15:05:05","2016-02-08 13:12:58","0 7 16 22 7 53 ","0000-00-00 00:00:00","0000-00-00 00:00:00","0 0 0 0 0 0 ",18,0,1,EUR,Mock,"1. NCCC Mall, Davao City, Davao Region, Philippines "


"KPI Dashboard"
"Units under Company control"
type,dbcell,bgcolor,akpiclass,akpistyle,total_unit,unit_return,u_disposed,u_transformed,u_corrections,the_kpi,u_date_update,u_threshold,kpi_status_text
comp_kpi,comp_data,orange,,,,,,,NA,0,,0,OK

"Units in distribution"
type,dbcell,bgcolor,akpiclass,akpistyle,total_unit,unit_return,u_disposed,u_transformed,u_corrections,the_kpi,u_date_update,u_threshold,kpi_status_text
dist_kpi,dist_data,blue,"text-primary dist_toggle_btn","cursor: pointer;",,,,,NA,0,,0,OK

"Units in consumer market"
type,dbcell,bgcolor,akpiclass,akpistyle,total_unit,unit_return,u_disposed,u_transformed,u_corrections,the_kpi,u_date_update,u_threshold,kpi_status_text
market_kpi,market_data,green,text-primary,"cursor: pointer;",,,,,NA,0,,0,OK

"Outbound notifications"
noti_kpi,email_sent_count,email_confirmed_count,sms_sent_count
0,0,0,0

"Inbound customer contacts"
contact_cntr,kpi_email,kpi_website,kpi_trading
,,,


"Cost Monitor"
"Cost Category"
cost_id,name,recall_id,continuity_id,date_created
86,ahhhehe,33,0,"2015-06-23 15:25:33"

"No Cost Items"




Blockers
id,recall_id,continuity_id,cc_id,crt_id,blocker,issue,impact,note,step_no,task_id,assigned,status,date_created,date_resolved,status_name,raised_by
79,33,0,68,68,sdf,sdf,dsf,sdf,0,1742,68,1,"2015-06-23 15:27:28","2015-06-23 15:28:43",Resolved,"Galawang Breezy"


"The Tasks"
id,recall_id,step_no,question,answer,assigned,status,task_guide,approvers,approvers_status,category_id,recall_pack_id,date_assigned,date_updated,date_completed,time_lapse,assigned_name,status_name,category_name,approvers_list
1733,33,1,"Investigation started? By whom?",asdf,,1,,,,0,18,"0000-00-00 00:00:00","0000-00-00 00:00:00","0000-00-00 00:00:00",,,Completed,,
1734,33,1,"What actions have been taken? By whom?",sdf,,1,,a:0:{},,0,18,"0000-00-00 00:00:00","0000-00-00 00:00:00","0000-00-00 00:00:00",,,Completed,,
1735,33,1,"Who is aware of the incident?",sdf,,1,,a:0:{},,0,18,"0000-00-00 00:00:00","0000-00-00 00:00:00","0000-00-00 00:00:00",,,Completed,,
1736,33,1,"Overview of incident",sdf,,1,,"a:1:{i:0;s:1:""4"";}",,0,18,"0000-00-00 00:00:00","0000-00-00 00:00:00","0000-00-00 00:00:00",,,Completed,,"Non-existing User - Not Approved, "
1737,33,1,"Products affected?",sf,,1,,,,0,18,"0000-00-00 00:00:00","0000-00-00 00:00:00","0000-00-00 00:00:00",,,Completed,,
1738,33,1,"Actual or potential injuries or illness?",sdf,,1,,,,0,18,"0000-00-00 00:00:00","0000-00-00 00:00:00","0000-00-00 00:00:00",,,Completed,,
1739,33,2,"Likely sources/causes of the problem? ",,,0,,,,0,18,"0000-00-00 00:00:00","0000-00-00 00:00:00","0000-00-00 00:00:00",,,"Task Not Started",,
1740,33,2,"Do we have samples to test? Testing agencies?",,,0,,,,0,18,"0000-00-00 00:00:00","0000-00-00 00:00:00","0000-00-00 00:00:00",,,"Task Not Started",,
1741,33,2,"Remaining stock on hold and quarantined? Customer stock?",,,0,,,,0,18,"0000-00-00 00:00:00","0000-00-00 00:00:00","0000-00-00 00:00:00",,,"Task Not Started",,
1742,33,2,"Consequences of the problem – does a health & safety risk exist? For Whom?",,,0,,,,0,18,"0000-00-00 00:00:00","0000-00-00 00:00:00","0000-00-00 00:00:00",,,"Task Not Started",,
1743,33,2,"Regulator notification required?",,,0,,,,0,18,"0000-00-00 00:00:00","0000-00-00 00:00:00","0000-00-00 00:00:00",,,"Task Not Started",,
1744,33,2,"Insurer notification? ",,,0,,,,0,18,"0000-00-00 00:00:00","0000-00-00 00:00:00","0000-00-00 00:00:00",,,"Task Not Started",,
1747,33,2,"Possible short term workarounds considered?",,,0,"this is just an example  fsdf sdf dscc",,,0,18,"0000-00-00 00:00:00","0000-00-00 00:00:00","0000-00-00 00:00:00",,,"Task Not Started",,
1749,33,2,"Current location of affected batches? ",,,0,,,,0,18,"0000-00-00 00:00:00","0000-00-00 00:00:00","0000-00-00 00:00:00",,,"Task Not Started",,
1752,33,2,"What batch codes are affected? Could be affected?",,,0," sdf sdfsd f dsf",,,0,18,"0000-00-00 00:00:00","0000-00-00 00:00:00","0000-00-00 00:00:00",,,"Task Not Started",,
1754,33,3,"Hazard Analysis","Minor Rare Rare Small Easy Minor",68,0,,,,55,18,"2015-06-22 15:05:45","2015-06-22 15:05:45","0000-00-00 00:00:00",,"Galawang Breezy","Task Not Started","Hazard Analysis",
1755,33,3,"Who are the key stakeholders? What are their likely concerns and expectations? How could these be met?",,,0,,,,56,18,"0000-00-00 00:00:00","0000-00-00 00:00:00","0000-00-00 00:00:00",,,"Task Not Started","Incident Analysis",
1756,33,3,"How might the media and stakeholders react to our intended actions? ",,,0,,,,56,18,"0000-00-00 00:00:00","0000-00-00 00:00:00","0000-00-00 00:00:00",,,"Task Not Started","Incident Analysis",
1757,33,3,"What current issues or incidents in the public domain need to be taken into account? ",,,0,,,,56,18,"0000-00-00 00:00:00","0000-00-00 00:00:00","0000-00-00 00:00:00",,,"Task Not Started","Incident Analysis",
1758,33,3,"Withdrawal? Trade Recall? Consumer Recall?",,,0,,,,57,18,"0000-00-00 00:00:00","0000-00-00 00:00:00","0000-00-00 00:00:00",,,"Task Not Started",Decision,
1759,33,4,"Key elements of strategy:",,,0,,,,58,18,"0000-00-00 00:00:00","0000-00-00 00:00:00","0000-00-00 00:00:00",,,"Task Not Started",Strategy,
1760,33,4,"We know when we are meeting/have met these objectives when:",,,0,,,,58,18,"0000-00-00 00:00:00","0000-00-00 00:00:00","0000-00-00 00:00:00",,,"Task Not Started",Strategy,
1761,33,4,"What are the critical objectives to be met? ",,,0,,,,58,18,"0000-00-00 00:00:00","0000-00-00 00:00:00","0000-00-00 00:00:00",,,"Task Not Started",Strategy,
1762,33,4,"How do we want to be viewed by key stakeholders when this withdrawal/recall is over? Are our intended actions consistent? ",,,0,,,,58,18,"0000-00-00 00:00:00","0000-00-00 00:00:00","0000-00-00 00:00:00",,,"Task Not Started",Strategy,
1763,33,4,"What can/can’t be compromised to meet the company’s strategic objectives?",,,0,,,,58,18,"0000-00-00 00:00:00","0000-00-00 00:00:00","0000-00-00 00:00:00",,,"Task Not Started",Strategy,
1764,33,4,"Should be suspend marketing and promotions? ",,,0,,,,59,18,"0000-00-00 00:00:00","0000-00-00 00:00:00","0000-00-00 00:00:00",,,"Task Not Started","Key Actions",
1765,33,4,"What actions should be taken by the company to repair, rework and dispose?",,,0,,,,59,18,"0000-00-00 00:00:00","0000-00-00 00:00:00","0000-00-00 00:00:00",,,"Task Not Started","Key Actions",
1766,33,4,"What actions should be taken by customers/consumers to receive compensation? ",,,0,,,,59,18,"0000-00-00 00:00:00","0000-00-00 00:00:00","0000-00-00 00:00:00",,,"Task Not Started","Key Actions",
1767,33,4,"What actions should be taken by customers/consumers to replace, repair and return? ",,,0,,,,59,18,"0000-00-00 00:00:00","0000-00-00 00:00:00","0000-00-00 00:00:00",,,"Task Not Started","Key Actions",
1745,33,5,"Example messages: ",,,0,,,,0,18,"0000-00-00 00:00:00","0000-00-00 00:00:00","0000-00-00 00:00:00",,,"Task Not Started",,
1748,33,5,"Who are the key audiences and corresponding medium to communicate? ",,,0,,,,0,18,"0000-00-00 00:00:00","0000-00-00 00:00:00","0000-00-00 00:00:00",,,"Task Not Started",,
1751,33,5,"What are the 3 or 4 key messages that need to be communicated to all audiences?",,,0,,,,0,18,"0000-00-00 00:00:00","0000-00-00 00:00:00","0000-00-00 00:00:00",,,"Task Not Started",,
1768,33,6,"Incident room established/call in number and times distributed.",,,0,,,,60,18,"0000-00-00 00:00:00","0000-00-00 00:00:00","0000-00-00 00:00:00",,,"Task Not Started",Administration,
1769,33,6,"Team briefed, responsibilities agreed, meeting times and arrangements established. ",,,0,,,,60,18,"0000-00-00 00:00:00","0000-00-00 00:00:00","0000-00-00 00:00:00",,,"Task Not Started",Administration,
1770,33,6,"Incident log started.",,,0,,,,60,18,"0000-00-00 00:00:00","0000-00-00 00:00:00","0000-00-00 00:00:00",,,"Task Not Started",Administration,
1771,33,6,"Official notification to regulator.",,,0,,,,61,18,"0000-00-00 00:00:00","0000-00-00 00:00:00","0000-00-00 00:00:00",,,"Task Not Started",Communications,
1772,33,6,"Media statements, Q&A’s spokesperson briefed. ",,,0,,,,61,18,"0000-00-00 00:00:00","0000-00-00 00:00:00","0000-00-00 00:00:00",,,"Task Not Started",Communications,
1773,33,6,"Accounts/Sales staff briefed, customers contacted. ",,,0,,,,61,18,"0000-00-00 00:00:00","0000-00-00 00:00:00","0000-00-00 00:00:00",,,"Task Not Started",Communications,
1774,33,6,"Advertisements/notices created and approved, media booked.",,,0,,,,61,18,"0000-00-00 00:00:00","0000-00-00 00:00:00","0000-00-00 00:00:00",,,"Task Not Started",Communications,
1775,33,6,"Call centre/reception briefed.",,,0,,,,61,18,"0000-00-00 00:00:00","0000-00-00 00:00:00","0000-00-00 00:00:00",,,"Task Not Started",Communications,
1776,33,6,"Product disposal/repair/rework arranged.",,,0,,,,62,18,"0000-00-00 00:00:00","0000-00-00 00:00:00","0000-00-00 00:00:00",,,"Task Not Started",Logistics,
1777,33,6,"Distribution register established.",,,0,,,,62,18,"0000-00-00 00:00:00","0000-00-00 00:00:00","0000-00-00 00:00:00",,,"Task Not Started",Logistics,
1778,33,6,"Transport and logistics arranged.",,,0,,,,62,18,"0000-00-00 00:00:00","0000-00-00 00:00:00","0000-00-00 00:00:00",,,"Task Not Started",Logistics,
1779,33,6,"Distribution register for returns and disposition updated.",,,0,,,,63,18,"0000-00-00 00:00:00","0000-00-00 00:00:00","0000-00-00 00:00:00",,,"Task Not Started",Monitoring,
1780,33,6,"Process for monitoring established. ",,,0,,,,63,18,"0000-00-00 00:00:00","0000-00-00 00:00:00","0000-00-00 00:00:00",,,"Task Not Started",Monitoring,
1781,33,6,"Effectiveness checks conducted.",,,0,,,,63,18,"0000-00-00 00:00:00","0000-00-00 00:00:00","0000-00-00 00:00:00",,,"Task Not Started",Monitoring,
1782,33,6,"Call data and communication response gathered. ",,,0,,,,63,18,"0000-00-00 00:00:00","0000-00-00 00:00:00","0000-00-00 00:00:00",,,"Task Not Started",Monitoring,
1783,33,6,"Close and review. ",,,0,,,,64,18,"0000-00-00 00:00:00","0000-00-00 00:00:00","0000-00-00 00:00:00",,,"Task Not Started",Reporting,
1784,33,6,"Interim reports for regulator, senior management prepared.",,,0,,,,64,18,"0000-00-00 00:00:00","0000-00-00 00:00:00","0000-00-00 00:00:00",,,"Task Not Started",Reporting,
1785,33,6,"Final reports prepared and distributed. ",,,0,,,,64,18,"0000-00-00 00:00:00","0000-00-00 00:00:00","0000-00-00 00:00:00",,,"Task Not Started",Reporting,
1792,33,7,"Cost data gathered.",,,0,,,,67,18,"0000-00-00 00:00:00","0000-00-00 00:00:00","0000-00-00 00:00:00",,,"Task Not Started",Insurance,
1793,33,7,"Status reviewed and operating changes determined. ",,,0,,,,68,18,"0000-00-00 00:00:00","0000-00-00 00:00:00","0000-00-00 00:00:00",,,"Task Not Started","Business Continuity Response",
1786,33,7,"Brief report on cause, response and results prepared and distributed to staff, board, customers and regulators (see final report).",,,0,,,,65,18,"0000-00-00 00:00:00","0000-00-00 00:00:00","0000-00-00 00:00:00",,,"Task Not Started",Customer,
1787,33,7,"Claims procedure established.",,,0,,,,65,18,"0000-00-00 00:00:00","0000-00-00 00:00:00","0000-00-00 00:00:00",,,"Task Not Started",Customer,
1788,33,7,"Replacement stock arranged. ",,,0,,,,65,18,"0000-00-00 00:00:00","0000-00-00 00:00:00","0000-00-00 00:00:00",,,"Task Not Started",Customer,
1789,33,7,"Develop and implement “we’re back” campaign",,,0,,,,66,18,"0000-00-00 00:00:00","0000-00-00 00:00:00","0000-00-00 00:00:00",,,"Task Not Started",Marketing,
1790,33,7,"Conduct and analyse market response to recall.",,,0,,,,66,18,"0000-00-00 00:00:00","0000-00-00 00:00:00","0000-00-00 00:00:00",,,"Task Not Started",Marketing,
1791,33,7,"Insurance claim submitted.",,,0,,,,67,18,"0000-00-00 00:00:00","0000-00-00 00:00:00","0000-00-00 00:00:00",,,"Task Not Started",Insurance,
1746,33,8,"Actions required:",,,0,,"a:1:{i:0;s:1:""4"";}",,0,18,"0000-00-00 00:00:00","0000-00-00 00:00:00","0000-00-00 00:00:00",,,"Task Not Started",,"Non-existing User - Not Approved, "
1750,33,8,"Things that need improvement:",,,0,,"a:3:{i:0;s:2:""11"";i:1;s:1:""4"";i:2;s:1:""9"";}",,0,18,"0000-00-00 00:00:00","0000-00-00 00:00:00","0000-00-00 00:00:00",,,"Task Not Started",,"Non-existing User - Not Approved, Non-existing User - Not Approved, Non-existing User - Not Approved, "
1753,33,8,"Things that went well: ",,,0,,,,0,18,"0000-00-00 00:00:00","0000-00-00 00:00:00","0000-00-00 00:00:00",,,"Task Not Started",,
